{
  "targets": {
    "debug": {
      "outFile": "build/debug.wasm",
      "textFile": "build/debug.wat",
      "sourceMap": true,
      "debug": true
    },
    "release": {
      "outFile": "../public/js/release.wasm",
      "textFile": "../public/js/release.wat",
      "sourceMap": true,
      "optimizeLevel": 3,
      "shrinkLevel": 0,
      "converge": false,
      "noAssert": false
    }
  },
  "options": {
    "bindings": "esm"
  }
}